[
    {
        "titolo": "Pilates",
        "descrizione": "Corso di Pilates",
        "codice": "CP104",
        "dataora": "2022-05-01T09:00:00"
    },
    {
        "titolo": "Crossfit",
        "descrizione": "Un corso di CrossFit",
        "codice": "CF104",
        "dataora": "2022-05-02T03:00:00"
    },
    {
        "titolo": "Pugilato",
        "descrizione": "Un corso di Pugilato",
        "codice": "PG104",
        "dataora": "2022-05-07T07:00:00"
    },
    {
        "titolo": "Arrampicata",
        "descrizione": "Un corso di Arrampicata",
        "codice": "AR104",
        "dataora": "2022-05-10T12:30:00"
    },
    {
        "titolo": "MMA",
        "descrizione": "Un corso di MMA",
        "codice": "MM104",
        "dataora": "2022-08-01T02:15:00"
    },
    {
        "titolo": "Nuoto",
        "descrizione": "Un corso di Nuoto",
        "codice": "NT104",
        "dataora": "2022-10-02T21:15:00"
    }
]